%YAML 1.1
%TAG !u! tag:unity3d.com,2011:
--- !u!1 &5313324923149478542
GameObject:
  m_ObjectHideFlags: 0
  m_CorrespondingSourceObject: {fileID: 0}
  m_PrefabInstance: {fileID: 0}
  m_PrefabAsset: {fileID: 0}
  serializedVersion: 6
  m_Component:
  - component: {fileID: 5313324923149478528}
  - component: {fileID: 5313324923149478543}
  - component: {fileID: 5313324923149478529}
  m_Layer: 0
  m_Name: Objectives Controller
  m_TagString: Untagged
  m_Icon: {fileID: 0}
  m_NavMeshLayer: 0
  m_StaticEditorFlags: 0
  m_IsActive: 1
--- !u!4 &5313324923149478528
Transform:
  m_ObjectHideFlags: 0
  m_CorrespondingSourceObject: {fileID: 0}
  m_PrefabInstance: {fileID: 0}
  m_PrefabAsset: {fileID: 0}
  m_GameObject: {fileID: 5313324923149478542}
  m_LocalRotation: {x: 0, y: 0, z: 0, w: 1}
  m_LocalPosition: {x: -110.55, y: 307.39505, z: 225.71387}
  m_LocalScale: {x: 1, y: 1, z: 1}
  m_Children: []
  m_Father: {fileID: 0}
  m_RootOrder: 0
  m_LocalEulerAnglesHint: {x: 0, y: 0, z: 0}
--- !u!114 &5313324923149478543
MonoBehaviour:
  m_ObjectHideFlags: 0
  m_CorrespondingSourceObject: {fileID: 0}
  m_PrefabInstance: {fileID: 0}
  m_PrefabAsset: {fileID: 0}
  m_GameObject: {fileID: 5313324923149478542}
  m_Enabled: 1
  m_EditorHideFlags: 0
  m_Script: {fileID: 11500000, guid: 4309239ce176a0846834b321c42df626, type: 3}
  m_Name: 
  m_EditorClassIdentifier: 
  objectives:
  - Procure a foto
  - Procure a chave de boca
  - Procure a barra de Ferro
  - Pegue a mascara
  - Pegue o filtro
  instructions:
  - Ande com WASD
  - Interaja com E
--- !u!114 &5313324923149478529
MonoBehaviour:
  m_ObjectHideFlags: 0
  m_CorrespondingSourceObject: {fileID: 0}
  m_PrefabInstance: {fileID: 0}
  m_PrefabAsset: {fileID: 0}
  m_GameObject: {fileID: 5313324923149478542}
  m_Enabled: 1
  m_EditorHideFlags: 0
  m_Script: {fileID: 11500000, guid: e8dc8d0106c73e548b89d1ce52c6e32b, type: 3}
  m_Name: 
  m_EditorClassIdentifier: 
