%YAML 1.1
%TAG !u! tag:unity3d.com,2011:
--- !u!241 &24100000
AudioMixerController:
  m_ObjectHideFlags: 0
  m_CorrespondingSourceObject: {fileID: 0}
  m_PrefabInstance: {fileID: 0}
  m_PrefabAsset: {fileID: 0}
  m_Name: MainMixer
  m_OutputGroup: {fileID: 0}
  m_MasterGroup: {fileID: 24300002}
  m_Snapshots:
  - {fileID: 24500006}
  m_StartSnapshot: {fileID: 24500006}
  m_SuspendThreshold: -80
  m_EnableSuspend: 1
  m_UpdateMode: 0
  m_ExposedParameters:
  - guid: c19f8bbf3ac1106429752087ab7bb7cc
    name: volume
  m_AudioMixerGroupViews:
  - guids:
    - 0c6edfe127903694db5cce2d0639897c
    name: View
  m_CurrentViewIndex: 0
  m_TargetSnapshot: {fileID: 24500006}
--- !u!243 &24300002
AudioMixerGroupController:
  m_ObjectHideFlags: 0
  m_CorrespondingSourceObject: {fileID: 0}
  m_PrefabInstance: {fileID: 0}
  m_PrefabAsset: {fileID: 0}
  m_Name: Master
  m_AudioMixer: {fileID: 24100000}
  m_GroupID: 0c6edfe127903694db5cce2d0639897c
  m_Children: []
  m_Volume: c19f8bbf3ac1106429752087ab7bb7cc
  m_Pitch: 81e310c78f0e8c24382f60b49d1484e9
  m_Effects:
  - {fileID: 24400004}
  m_UserColorIndex: 0
  m_Mute: 0
  m_Solo: 0
  m_BypassEffects: 0
--- !u!244 &24400004
AudioMixerEffectController:
  m_ObjectHideFlags: 3
  m_CorrespondingSourceObject: {fileID: 0}
  m_PrefabInstance: {fileID: 0}
  m_PrefabAsset: {fileID: 0}
  m_Name: 
  m_EffectID: 88f381a8dd440a24b8f1ffc79179ce4a
  m_EffectName: Attenuation
  m_MixLevel: 707a977b8ad26da40bf8bb4c8f9833cc
  m_Parameters: []
  m_SendTarget: {fileID: 0}
  m_EnableWetMix: 0
  m_Bypass: 0
--- !u!245 &24500006
AudioMixerSnapshotController:
  m_ObjectHideFlags: 0
  m_CorrespondingSourceObject: {fileID: 0}
  m_PrefabInstance: {fileID: 0}
  m_PrefabAsset: {fileID: 0}
  m_Name: Snapshot
  m_AudioMixer: {fileID: 24100000}
  m_SnapshotID: 3e2681ff6f0556c4582847a16f05c73a
  m_FloatValues:
    c19f8bbf3ac1106429752087ab7bb7cc: -0.16685188
  m_TransitionOverrides: {}
--- !u!244 &244074181637975560
AudioMixerEffectController:
  m_ObjectHideFlags: 3
  m_CorrespondingSourceObject: {fileID: 0}
  m_PrefabInstance: {fileID: 0}
  m_PrefabAsset: {fileID: 0}
  m_Name: 
  m_EffectID: 42d46f16596986648aeacb29e4145f18
  m_EffectName: Duck Volume
  m_MixLevel: b4c68099493cc444b8b84624173dfa40
  m_Parameters:
  - m_ParameterName: Threshold
    m_GUID: b5850c2cca7e0cc4bbeb83d0a0a0799b
  - m_ParameterName: Ratio
    m_GUID: b683cc4e0ed9f7a429e24dc4e6bcd256
  - m_ParameterName: Attack Time
    m_GUID: be85a751e6d8d0d4d932f1f880cf8a5b
  - m_ParameterName: Release Time
    m_GUID: df1bb653a8b157443af50a5367e6f8b9
  - m_ParameterName: Make-up Gain
    m_GUID: 07a7647f92c0b19408941b7a9467d4d1
  - m_ParameterName: Knee
    m_GUID: d442ad037c101224d8efb8ea64e52982
  - m_ParameterName: Sidechain Mix
    m_GUID: c5004790cf80e5847bd10a322f915158
  m_SendTarget: {fileID: 0}
  m_EnableWetMix: 0
  m_Bypass: 0
